 <svg xmlns="http://www.w3.org/2000/svg" width="19" height="18" viewBox="0 0 19 18"
                            fill="none">
                            <rect x="0.5" width="18" height="18" rx="9" fill="#FFFCFC"></rect>
                            <path
                                d="M13.2867 6.21298C13.3534 6.14844 13.4066 6.07123 13.4432 5.98585C13.4798 5.90047 13.4991 5.80863 13.5 5.7157C13.5008 5.62276 13.4832 5.53058 13.4482 5.44454C13.4131 5.3585 13.3613 5.28033 13.2959 5.21458C13.2304 5.14883 13.1525 5.09682 13.0668 5.06158C12.981 5.02635 12.8892 5.00859 12.7965 5.00936C12.7039 5.01012 12.6123 5.02939 12.5271 5.06603C12.442 5.10267 12.365 5.15596 12.3006 5.22278L9.50395 8.02726L6.70825 5.22278C6.64437 5.15401 6.56734 5.09885 6.48175 5.06059C6.39616 5.02234 6.30376 5.00177 6.21007 5.00011C6.11638 4.99845 6.02332 5.01574 5.93644 5.05094C5.84955 5.08615 5.77063 5.13855 5.70437 5.20501C5.63811 5.27148 5.58588 5.35065 5.55078 5.43781C5.51569 5.52496 5.49846 5.61832 5.50011 5.7123C5.50176 5.80628 5.52227 5.89897 5.56041 5.98483C5.59854 6.07069 5.65353 6.14797 5.72208 6.21205L8.51592 9.01746L5.72022 11.8219C5.59697 11.9546 5.52987 12.1301 5.53306 12.3115C5.53625 12.4928 5.60948 12.6658 5.73732 12.7941C5.86516 12.9223 6.03763 12.9958 6.2184 12.999C6.39917 13.0022 6.57412 12.9348 6.70639 12.8112L9.50395 10.0067L12.2996 12.8121C12.4319 12.9358 12.6069 13.0031 12.7876 12.9999C12.9684 12.9967 13.1409 12.9232 13.2687 12.795C13.3966 12.6667 13.4698 12.4937 13.473 12.3124C13.4762 12.1311 13.4091 11.9556 13.2858 11.8229L10.492 9.01746L13.2867 6.21298Z"
                                fill="#dc143c"></path>
                        </svg>
