<svg xmlns="http://www.w3.org/2000/svg" width="18" height="18" viewBox="0 0 18 18" fill="none">
  <path d="M12.75 6.75146C14.3812 6.76046 15.2647 6.83321 15.8407 7.40921C16.5 8.06846 16.5 9.12896 16.5 11.25V12C16.5 14.1217 16.5 15.1822 15.8407 15.8415C15.1822 16.5 14.121 16.5 12 16.5H6C3.879 16.5 2.81775 16.5 2.15925 15.8415C1.5 15.1815 1.5 14.1217 1.5 12V11.25C1.5 9.12896 1.5 8.06846 2.15925 7.40921C2.73525 6.83321 3.61875 6.76046 5.25 6.75146" stroke="#2462BF" stroke-linecap="round"/>
  <path d="M9 1.5V11.25M9 11.25L6.75 8.625M9 11.25L11.25 8.625" stroke="#2462BF" stroke-linecap="round" stroke-linejoin="round"/>
</svg>