<svg width="19" height="20" viewBox="0 0 19 20" fill="none" xmlns="http://www.w3.org/2000/svg">
<path d="M18.5 5.59656C18.2368 5.59656 17.9728 5.65018 17.7504 5.78423C16.5 6.54106 16.5 7.5729 16.5 8.27764V8.66065H12.9M6.5 10.9587H18.5M12.5 10.9587V19.002M8.9 18.6189C8.1 18.6189 7.5 17.4699 7.5 17.4699C6.9 16.3209 6.9 15.5549 6.9 14.4058V13.2568H0.5V13.0653L2.0376 7.32394C2.16991 6.82977 2.47017 6.39181 2.89109 6.07906C3.312 5.76631 3.82963 5.59656 4.3624 5.59656H5.3L6.4576 7.81343C6.59051 8.0681 6.7949 8.28228 7.04784 8.43193C7.30078 8.58158 7.59227 8.66078 7.8896 8.66065H11.3M5.18 4.06451C5.18 4.06451 3.9 3.29849 3.9 2.34096C3.9 2.16512 3.93617 1.991 4.00645 1.82854C4.07672 1.66609 4.17973 1.51848 4.30958 1.39414C4.43944 1.2698 4.59359 1.17117 4.76326 1.10388C4.93292 1.03659 5.11476 1.00195 5.2984 1.00195C5.48204 1.00195 5.66388 1.03659 5.83354 1.10388C6.00321 1.17117 6.15737 1.2698 6.28722 1.39414C6.41707 1.51848 6.52008 1.66609 6.59035 1.82854C6.66063 1.991 6.6968 2.16512 6.6968 2.34096C6.6968 3.29849 5.42 4.06451 5.42 4.06451H5.18Z" stroke="#0F4596"/>
</svg>
