<svg width="132" height="133" viewBox="0 0 132 133" fill="none" xmlns="http://www.w3.org/2000/svg">
<g clip-path="url(#clip0_569_3408)">
<path d="M117.275 99.6502C117.275 119.846 81.7689 132.435 60.877 132.435C39.9851 132.435 23.0488 116.063 23.0488 95.8674C23.0488 75.6718 46.7774 65.1463 64.8891 79.9337C92.4005 102.396 117.275 79.4546 117.275 99.6502Z" fill="#EFF5FF"/>
<path d="M16.0016 32.3574L12.1484 50.9572C13.8621 52.6964 15.6797 54.3407 18.6137 54.9612L32.7283 57.4417L36.0425 35.5785L16.0016 32.3574Z" fill="#FAFAFA"/>
<path d="M15.1969 31.21L11.3438 49.8097L17.8091 53.8137L31.9236 56.2943L36.0904 35.3068L15.1969 31.21Z" fill="#F5F5F5"/>
<path d="M13.9747 48.8169L11.3438 49.8096C11.3438 49.8096 12.2942 51.3584 13.6784 52.1973C15.0623 53.0362 16.3974 53.5654 17.8093 53.8136C17.8093 53.8136 14.727 52.2806 13.9747 48.8169Z" fill="#E0E0E0"/>
<path d="M13.0516 35.203L22.6979 32.2107L22.0821 30.1797L12.2773 33.0301L13.0516 35.203Z" fill="#EBEBEB"/>
<path d="M37.7596 40.3248L31.5069 32.3936L29.832 33.6967L36.009 41.8269L37.7596 40.3248Z" fill="#EBEBEB"/>
<path d="M32.4605 41.4858C32.4531 41.523 28.8907 40.8576 24.5044 39.9998C20.1166 39.1416 16.5668 38.4159 16.5742 38.3787C16.5816 38.3415 20.1432 39.0068 24.5308 39.865C28.9171 40.7228 32.4676 41.4486 32.4605 41.4858Z" fill="#E0E0E0"/>
<path d="M31.8296 44.3371C31.8222 44.3743 28.2598 43.709 23.8736 42.8511C19.486 41.9929 15.936 41.2672 15.9434 41.23C15.9508 41.1928 19.5124 41.8581 23.9 42.716C28.2862 43.5739 31.8368 44.2996 31.8296 44.3371Z" fill="#E0E0E0"/>
<path d="M31.4214 46.894C31.414 46.9312 27.8516 46.2659 23.4654 45.408C19.0778 44.5498 15.5278 43.8243 15.5352 43.7869C15.5426 43.7497 19.1042 44.415 23.4918 45.2732C27.878 46.131 31.4288 46.8568 31.4214 46.894Z" fill="#E0E0E0"/>
<path d="M30.9273 49.3361C30.9199 49.3733 27.3575 48.708 22.9712 47.8501C18.5836 46.9919 15.0336 46.2662 15.041 46.229C15.0484 46.1918 18.61 46.8571 22.9976 47.7153C27.3841 48.5732 30.9347 49.2989 30.9273 49.3361Z" fill="#E0E0E0"/>
<path d="M106.314 23.8056L101.326 35.9659C99.6701 36.3004 97.9912 36.5404 96.0681 35.7606L87.0117 31.7215L93.5709 17.8977L106.314 23.8056Z" fill="#FAFAFA"/>
<path d="M107.22 23.4587L102.232 35.619L96.9743 35.4138L87.918 31.3749L93.6494 17.7236L107.22 23.4587Z" fill="#F5F5F5"/>
<path d="M101.108 34.0315L102.233 35.6191C102.233 35.6191 101.088 36.1398 99.9696 36.0852C98.851 36.0309 97.8805 35.8177 96.9746 35.4138C96.9746 35.4138 99.3357 35.7272 101.108 34.0315Z" fill="#E0E0E0"/>
<path d="M106.905 26.5792L102.529 21.1301L103.668 20.2034L108.19 25.6327L106.905 26.5792Z" fill="#EBEBEB"/>
<path d="M90.748 19.9559L97.4038 17.8259L97.8605 19.2217L91.1709 21.4949L90.748 19.9559Z" fill="#EBEBEB"/>
<path d="M93.3399 22.6723C93.3547 22.6375 95.6759 23.5864 98.5239 24.7917C101.373 25.9973 103.67 27.0029 103.655 27.0377C103.64 27.0726 101.319 26.1239 98.4704 24.9183C95.6223 23.713 93.3251 22.7071 93.3399 22.6723Z" fill="#E0E0E0"/>
<path d="M92.5958 24.552C92.6105 24.5171 94.9318 25.466 97.7798 26.6714C100.629 27.8769 102.926 28.8826 102.911 28.9174C102.896 28.9522 100.575 28.0036 97.7262 26.798C94.8782 25.5924 92.581 24.5868 92.5958 24.552Z" fill="#E0E0E0"/>
<path d="M91.8399 26.1767C91.8547 26.1419 94.1759 27.0908 97.0239 28.2961C99.873 29.5017 102.17 30.5073 102.155 30.5421C102.14 30.577 99.8194 29.6283 96.9704 28.4227C94.1226 27.2172 91.8251 26.2115 91.8399 26.1767Z" fill="#E0E0E0"/>
<path d="M91.1817 27.769C91.1965 27.7342 93.5177 28.6831 96.3657 29.8884C99.2148 31.094 101.511 32.0993 101.497 32.1344C101.482 32.1692 99.1612 31.2206 96.3122 30.015C93.4641 28.8097 91.1669 27.8038 91.1817 27.769Z" fill="#E0E0E0"/>
<path d="M100.892 75.6251C96.8519 72.332 96.2951 66.7346 96.8319 61.7801C96.9213 60.9531 96.8952 60.0723 97.3434 59.374C97.7919 58.676 98.749 58.247 99.4655 58.6514C100.06 58.987 100.275 59.723 100.576 60.3408C100.975 61.1631 101.61 61.8659 102.382 62.3423C102.89 62.6554 103.531 62.8715 104.073 62.6227C104.818 62.2811 104.975 61.2995 105.031 60.4743C105.136 58.9366 105.24 57.3989 105.345 55.8614C105.401 55.0365 105.461 54.1942 105.775 53.4308C106.09 52.667 106.71 51.9822 107.511 51.8205C108.312 51.6591 109.248 52.1832 109.354 53.0026C109.398 53.3437 109.304 53.6872 109.301 54.0312C109.299 54.3752 109.43 54.7659 109.748 54.8854C110.07 55.0065 110.418 54.797 110.682 54.5741C111.595 53.8046 112.252 52.7747 112.871 51.7482C113.49 50.7215 114.094 49.6684 114.934 48.8176C115.774 47.9666 116.895 47.3263 118.081 47.3469C119.267 47.3678 120.472 48.1898 120.684 49.3713C120.897 50.5561 120.131 51.6854 119.324 52.5718C118.125 53.8869 116.738 55.0255 115.22 55.9408C114.947 56.106 114.65 56.2846 114.528 56.5827C114.308 57.1193 114.788 57.7038 115.318 57.9249C115.917 58.1753 116.589 58.1608 117.227 58.2842C117.864 58.4077 118.54 58.743 118.738 59.3687C119.013 60.2366 118.242 61.0679 117.506 61.595C116.031 62.6507 114.377 63.4484 112.64 63.9428C112.016 64.1198 111.364 64.2673 110.843 64.6572C110.322 65.0474 109.972 65.7665 110.224 66.369C110.477 66.9726 111.222 67.2145 111.866 67.1438C112.51 67.0731 113.104 66.7703 113.727 66.5869C114.892 66.2432 116.349 66.4297 117.003 67.463C117.432 68.1423 117.408 69.0419 117.109 69.7913C116.811 70.5408 116.273 71.1658 115.708 71.7366C113.734 73.7328 111.281 75.2761 108.585 75.9928C105.888 76.7083 103.434 76.7742 100.892 75.6251Z" fill="#F5F5F5"/>
<path d="M100.555 79.3025C100.88 77.348 101.484 75.0564 102.406 72.6062C103.323 70.1536 104.551 67.5488 105.929 64.8683C106.276 64.1995 106.619 63.5387 106.957 62.8874C107.295 62.2381 107.631 61.5939 107.999 60.9846C108.729 59.7618 109.524 58.642 110.311 57.6029C111.099 56.5627 111.884 55.6045 112.625 54.7139C113.368 53.8244 114.076 53.0084 114.753 52.2922C116.104 50.8542 117.328 49.8257 118.197 49.1537C118.631 48.8163 118.976 48.5655 119.213 48.3987C119.326 48.3196 119.416 48.2576 119.483 48.2106C119.544 48.1692 119.576 48.1489 119.578 48.151C119.579 48.1531 119.55 48.1777 119.492 48.2236C119.427 48.2734 119.34 48.3394 119.231 48.4238C119 48.5987 118.661 48.8567 118.233 49.2007C117.377 49.8863 116.168 50.9239 114.831 52.3669C114.161 53.0857 113.459 53.9038 112.722 54.7955C111.986 55.6892 111.205 56.6489 110.423 57.6886C109.64 58.7277 108.851 59.8452 108.127 61.0621C107.762 61.6689 107.43 62.3075 107.091 62.9586C106.753 63.6097 106.411 64.2702 106.064 64.9387C104.687 67.6171 103.459 70.214 102.537 72.6563C101.611 75.0962 100.999 77.3757 100.661 79.3208" fill="#E0E0E0"/>
<path d="M108.038 60.9822C108.028 60.983 108.009 60.8556 107.983 60.6245C107.957 60.3934 107.93 60.0579 107.902 59.6429C107.847 58.8132 107.809 57.6646 107.772 56.3984C107.735 55.1313 107.681 53.9867 107.613 53.1602C107.58 52.7468 107.55 52.4126 107.526 52.1817C107.504 51.9506 107.496 51.8219 107.507 51.8203C107.517 51.8187 107.544 51.9446 107.585 52.1736C107.627 52.4023 107.673 52.736 107.719 53.1494C107.815 53.9761 107.887 55.1247 107.924 56.3931C107.957 57.6427 107.987 58.7734 108.01 59.6371C108.023 60.0273 108.034 60.356 108.043 60.62C108.049 60.8522 108.048 60.9814 108.038 60.9822Z" fill="#E0E0E0"/>
<path d="M118.79 59.7868C118.789 59.7973 118.637 59.8036 118.363 59.806C118.09 59.8102 117.693 59.8137 117.204 59.8342C116.225 59.8669 114.875 59.9598 113.389 60.1271C111.903 60.2972 110.565 60.5085 109.602 60.6892C109.12 60.776 108.731 60.857 108.462 60.9113C108.194 60.9667 108.044 60.9923 108.041 60.9823C108.039 60.9718 108.184 60.9266 108.449 60.853C108.715 60.781 109.1 60.6837 109.582 60.5824C110.543 60.3737 111.883 60.145 113.373 59.9741C114.863 59.8063 116.219 59.7303 117.202 59.7255C117.693 59.7192 118.091 59.7319 118.365 59.7464C118.639 59.7622 118.79 59.7759 118.79 59.7868Z" fill="#E0E0E0"/>
<path d="M102.548 72.4209C102.543 72.4228 102.521 72.3763 102.485 72.2864C102.443 72.179 102.393 72.0479 102.332 71.8894C102.201 71.544 102.024 71.0394 101.814 70.4131C101.392 69.1606 100.864 67.4121 100.308 65.475C99.7514 63.5371 99.2407 61.7859 98.8461 60.5265C98.6524 59.9142 98.4928 59.4104 98.3744 59.036C98.324 58.8735 98.2823 58.7398 98.2483 58.6295C98.2211 58.5361 98.209 58.4863 98.214 58.4842C98.219 58.4826 98.2404 58.529 98.277 58.6192C98.3185 58.7266 98.3688 58.8574 98.4298 59.016C98.5609 59.3613 98.7379 59.866 98.9482 60.4922C99.3697 61.7448 99.8973 63.4933 100.454 65.4312C101.01 67.3685 101.521 69.1194 101.916 70.3791C102.11 70.9911 102.269 71.4952 102.388 71.8693C102.438 72.0318 102.48 72.1661 102.514 72.2758C102.541 72.3692 102.553 72.4191 102.548 72.4209Z" fill="#E0E0E0"/>
<path d="M116.972 68.9251C116.974 68.9304 116.924 68.9464 116.828 68.9723C116.716 69.0011 116.577 69.0361 116.409 69.0791C116.022 69.1736 115.5 69.3013 114.864 69.4561C113.56 69.7748 111.763 70.2357 109.779 70.7474C107.793 71.2597 105.991 71.7043 104.679 71.996C104.023 72.1422 103.492 72.2551 103.123 72.3255C102.952 72.3569 102.812 72.3828 102.698 72.4041C102.6 72.4205 102.548 72.4263 102.547 72.4213C102.546 72.416 102.596 72.3999 102.691 72.3738C102.804 72.3453 102.942 72.3099 103.11 72.2672C103.497 72.1728 104.019 72.0453 104.655 71.8902C105.959 71.5718 107.756 71.1107 109.741 70.5987C111.726 70.0866 113.528 69.6418 114.839 69.3503C115.495 69.2042 116.027 69.0913 116.396 69.0211C116.566 68.9897 116.707 68.9633 116.822 68.9425C116.919 68.9259 116.971 68.9201 116.972 68.9251Z" fill="#E0E0E0"/>
<path d="M122.964 121.702C122.964 121.74 98.0041 121.77 67.2219 121.77C36.4289 121.77 11.4746 121.74 11.4746 121.702C11.4746 121.664 36.4289 121.633 67.2219 121.633C98.0043 121.633 122.964 121.664 122.964 121.702Z" fill="#263238"/>
<path d="M45.1484 21.1763L51.5122 40.5802C54.041 41.2845 56.6157 41.8446 59.6832 40.8524L74.1708 35.6098L65.5579 13.4519L45.1484 21.1763Z" fill="#E0E0E0"/>
<path d="M43.7832 20.5372L50.1469 39.9407L58.318 40.213L72.8056 34.9707L65.456 13.1729L43.7832 20.5372Z" fill="#2462BF"/>
<path d="M52.068 37.6072L50.1465 39.9408C50.1465 39.9408 51.8617 40.876 53.6013 40.9174C55.3405 40.9585 56.8685 40.7375 58.3178 40.213C58.3178 40.213 54.6235 40.4338 52.068 37.6072Z" fill="#2462BF"/>
<path opacity="0.3" d="M52.068 37.6072C51.484 38.788 50.8946 40.1711 50.1465 39.9408C50.1465 39.9408 51.8617 40.876 53.6013 40.9174C55.3405 40.9585 56.8685 40.7375 58.3178 40.213C58.3178 40.213 54.6235 40.4338 52.068 37.6072Z" fill="black"/>
<path d="M43.92 25.4084L51.3118 17.4552L49.6506 15.8911L42.0352 23.797L43.92 25.4084Z" fill="#E0E0E0"/>
<path d="M69.6989 16.9577L59.624 12.9102L58.7598 15.0216L68.8708 19.2953L69.6989 16.9577Z" fill="#E0E0E0"/>
<path d="M65.3786 20.8765C65.3907 20.9124 61.7125 22.1968 57.164 23.7448C52.6139 25.2934 48.9165 26.5193 48.9043 26.4834C48.8922 26.4475 52.5696 25.1633 57.1197 23.6148C61.6682 22.0665 65.3665 20.8406 65.3786 20.8765Z" fill="#263238"/>
<path d="M66.3161 23.8723C66.3282 23.9082 62.65 25.1927 58.1015 26.7407C53.5514 28.2892 49.854 29.5151 49.8418 29.4792C49.8297 29.4434 53.5071 28.1592 58.0572 26.6106C62.6057 25.0626 66.3037 23.8365 66.3161 23.8723Z" fill="#263238"/>
<path d="M67.3063 26.4746C67.3185 26.5105 63.6403 27.795 59.0918 29.343C54.5417 30.8915 50.8442 32.1174 50.8321 32.0815C50.8199 32.0457 54.4973 30.7615 59.0474 29.2129C63.5959 27.6649 67.2942 26.4388 67.3063 26.4746Z" fill="#263238"/>
<path d="M68.1501 29.0166C68.1622 29.0525 64.484 30.337 59.9355 31.885C55.3854 33.4335 51.6879 34.6594 51.6758 34.6235C51.6637 34.5876 55.3411 33.3034 59.8915 31.7549C64.4397 30.2067 68.1377 28.9808 68.1501 29.0166Z" fill="#263238"/>
<path d="M84.975 83.1432L86.2513 95.0262C86.2513 95.0262 88.7382 91.2659 90.4215 92.9419C92.0252 94.5384 94.8574 106.197 94.8574 106.197C94.8574 106.197 94.8967 109.999 92.8738 111.004C86.398 114.218 79.1848 108.157 79.1848 108.157L80.2073 74.177C82.8923 76.4402 84.6002 79.652 84.975 83.1432Z" fill="#2462BF"/>
<path d="M63.115 74.8937L74.3301 73.9981C74.3997 72.6886 74.3063 67.6228 74.3063 67.6228C74.3063 67.6228 78.9728 66.8973 79.0303 62.232C79.0878 57.5666 78.279 46.8535 78.279 46.8535C72.8781 44.5326 66.6444 45.3161 61.9864 48.9017L61.295 49.434L63.115 74.8937Z" fill="#B78876"/>
<path d="M74.3095 67.5551C74.3095 67.5551 71.361 67.7949 68.2272 65.8264C68.2272 65.8264 69.665 69.1841 74.3203 68.7639L74.3095 67.5551Z" fill="#AA6550"/>
<path d="M61.8668 54.2659C61.7874 54.2313 58.661 53.3178 58.7631 56.5074C58.8649 59.6968 62.0462 58.9368 62.0488 58.845C62.0514 58.7535 61.8668 54.2659 61.8668 54.2659Z" fill="#B78876"/>
<path d="M61.0338 57.6675C61.0196 57.6577 60.9795 57.7081 60.8869 57.7543C60.7967 57.7991 60.6402 57.8332 60.4719 57.7762C60.1311 57.6633 59.8301 57.1375 59.7963 56.563C59.7789 56.2728 59.8309 55.9945 59.9264 55.7623C60.0163 55.5259 60.162 55.3582 60.3308 55.3225C60.4983 55.2782 60.6218 55.3758 60.6637 55.4645C60.7093 55.5523 60.6911 55.6167 60.708 55.6214C60.7173 55.6291 60.7748 55.5658 60.745 55.4349C60.7297 55.3721 60.6901 55.298 60.6131 55.2392C60.5344 55.1793 60.421 55.1513 60.3031 55.1677C60.0578 55.1925 59.8435 55.426 59.7386 55.6808C59.6201 55.9372 59.5547 56.2503 59.5745 56.5759C59.6154 57.218 59.9636 57.8089 60.4289 57.9273C60.655 57.9785 60.8402 57.9052 60.9344 57.8266C61.0307 57.7448 61.0452 57.673 61.0338 57.6675Z" fill="#AA6550"/>
<path d="M77.2496 54.0834C77.262 54.4354 76.9745 54.7358 76.6073 54.7556C76.2408 54.7751 75.933 54.5068 75.9206 54.1549C75.9082 53.803 76.1957 53.502 76.5624 53.4822C76.9294 53.4624 77.2372 53.7315 77.2496 54.0834Z" fill="#263238"/>
<path d="M77.3996 53.4162C77.317 53.503 76.8121 53.1295 76.0953 53.1316C75.3791 53.1231 74.8531 53.4922 74.7753 53.4043C74.737 53.3656 74.8212 53.2086 75.0504 53.0419C75.276 52.8757 75.6606 52.7142 76.1072 52.7161C76.5538 52.7185 76.9295 52.8828 77.1453 53.0511C77.3656 53.2202 77.4402 53.3774 77.3996 53.4162Z" fill="#263238"/>
<path d="M70.2281 54.3332C70.2405 54.6848 69.9527 54.9856 69.5858 55.0054C69.2193 55.0251 68.9115 54.7566 68.8991 54.4047C68.8867 54.0528 69.1742 53.7518 69.5409 53.732C69.9079 53.7122 70.2157 53.9815 70.2281 54.3332Z" fill="#263238"/>
<path d="M70.349 53.5498C70.2661 53.6366 69.7607 53.263 69.0444 53.2651C68.3285 53.2567 67.8022 53.6255 67.7244 53.5376C67.6864 53.4989 67.7695 53.3422 67.9995 53.1752C68.2251 53.009 68.6097 52.8475 69.056 52.8494C69.5027 52.852 69.8783 53.0164 70.0944 53.1844C70.3141 53.354 70.3893 53.511 70.349 53.5498Z" fill="#263238"/>
<path d="M72.9543 58.867C72.9509 58.8261 73.3967 58.7494 74.1188 58.657C74.3018 58.638 74.4752 58.6016 74.506 58.4769C74.5493 58.3447 74.4725 58.1471 74.3839 57.9342C74.2119 57.4913 74.0317 57.0267 73.8426 56.5403C73.0907 54.5554 72.5465 52.9233 72.6267 52.8937C72.7069 52.8642 73.3814 54.4488 74.1333 56.4337C74.3142 56.9231 74.4873 57.3897 74.6519 57.8361C74.7213 58.044 74.8403 58.2801 74.7469 58.5547C74.6975 58.6913 74.5633 58.7908 74.4459 58.8224C74.3285 58.8583 74.2256 58.8602 74.1351 58.8657C73.4078 58.9045 72.957 58.9077 72.9543 58.867Z" fill="#263238"/>
<path d="M70.5334 50.74C70.4627 50.935 69.7467 50.8427 68.9057 50.944C68.0623 51.0284 67.3841 51.2748 67.2725 51.0999C67.2226 51.0162 67.3408 50.8329 67.6152 50.644C67.8869 50.4557 68.3209 50.2765 68.8258 50.2203C69.3307 50.1652 69.7931 50.2454 70.0994 50.3699C70.4083 50.4942 70.5637 50.6474 70.5334 50.74Z" fill="#263238"/>
<path d="M77.1339 51.3408C77.0078 51.5035 76.5139 51.3344 75.9198 51.3268C75.3263 51.298 74.8229 51.436 74.7074 51.2659C74.6567 51.1833 74.7359 51.02 74.9556 50.8659C75.1722 50.7124 75.5344 50.5868 75.9425 50.599C76.3506 50.6119 76.7041 50.7596 76.9107 50.9263C77.1207 51.0936 77.1895 51.2614 77.1339 51.3408Z" fill="#263238"/>
<path d="M80.5496 43.9079C80.5995 43.3296 80.3844 42.7089 79.9136 42.3691C79.4429 42.0293 78.7133 42.051 78.3307 42.4876C78.5497 41.7085 77.9129 40.81 77.1054 40.7588C76.3446 40.7106 75.6956 41.2854 74.9604 41.4869C74.2428 41.6837 73.4725 41.5136 72.7822 41.2355C72.0918 40.9575 71.4465 40.5737 70.7474 40.3186C69.2894 39.7862 67.6224 39.8529 66.2116 40.5006C64.801 41.1482 63.6635 42.3688 63.1169 43.8216C62.0965 43.5027 60.9371 44.0208 60.3079 44.885C59.6788 45.7492 59.5173 46.8844 59.6426 47.9459C59.727 48.6635 59.9347 49.3565 60.176 50.0395C60.1758 50.0993 60.17 50.1582 60.171 50.2183C60.2193 52.7838 60.5092 55.7964 61.6037 55.8133C63.5113 55.8426 63.0568 52.2483 63.0568 52.2483C65.398 51.3437 64.5256 47.8362 65.1113 47.3041C65.6967 46.772 66.9212 45.5355 71.8227 48.0406C73.726 49.0133 76.2567 48.9829 77.638 48.6695C77.6786 48.6608 77.7195 48.6545 77.7599 48.6447C77.7683 48.6426 77.7797 48.641 77.7881 48.6389C77.8031 48.635 77.814 48.6268 77.8287 48.6226C78.269 48.5078 78.6937 48.3374 79.0857 48.0894C79.5297 47.8085 79.9333 47.4281 80.1217 46.9377C80.3098 46.4472 80.2391 45.835 79.8542 45.4772C80.2164 45.0232 80.4995 44.4861 80.5496 43.9079Z" fill="#263238"/>
<path d="M53.9387 104.17L53.586 110.79L52.7978 120.3H82.7722L81.4706 106.249L84.0234 84.0505C83.8016 76.2062 80.7895 72.9443 74.6265 72.1951C74.575 72.1888 75.1641 72.2621 75.1122 72.256C74.2635 72.1558 75.1121 72.2561 74.6265 72.1951C70.6404 73.4223 66.6543 73.42 62.6683 72.188V72.1883C60.8203 72.2666 59.2892 72.8356 57.7175 73.1369C52.7664 74.0855 48.6901 77.9112 47.7 81.2412C46.8849 83.9826 40.9891 107.758 40.9891 107.758H52.7179L53.9387 104.17Z" fill="#2462BF"/>
<path d="M73.5546 61.0719C73.4422 61.3566 73.3272 61.6454 73.1388 61.8868C72.9505 62.1279 72.6751 62.3192 72.3693 62.3337C72.0435 62.3493 71.7296 62.1564 71.5478 61.8855C71.3661 61.6146 71.3043 61.2772 71.3188 60.9514C71.332 60.6567 71.4668 60.3053 71.7597 60.2705C71.8815 60.256 72.0013 60.3032 72.1153 60.3491C72.6281 60.5572 73.1412 60.7651 73.6543 60.9733" fill="#AA6550"/>
<path d="M72.9394 62.3379C72.9315 62.2896 72.5938 62.4268 72.1187 62.2366C71.8887 62.144 71.637 61.9607 71.4983 61.6729C71.3595 61.3882 71.3321 61.0031 71.4779 60.6662C71.5117 60.5818 71.5626 60.5047 71.6122 60.4361C71.6732 60.3723 71.6618 60.3752 71.7283 60.3847C71.7911 60.4016 71.8921 60.4493 71.9747 60.4815C72.0604 60.5163 72.1448 60.5509 72.2274 60.5844C72.5569 60.7176 72.855 60.834 73.1069 60.9281C73.6108 61.1165 73.93 61.2154 73.9448 61.1806C73.9596 61.1458 73.6675 60.9835 73.1832 60.7495C72.941 60.6324 72.6508 60.4976 72.3269 60.3515C72.2454 60.3151 72.1623 60.2779 72.0778 60.2399C71.9879 60.2029 71.9196 60.1626 71.7969 60.1241C71.7367 60.1072 71.6515 60.0977 71.5684 60.1307C71.4872 60.1636 71.4365 60.2188 71.3988 60.2647C71.33 60.3562 71.2693 60.4504 71.2258 60.5564C71.0448 60.9772 71.0883 61.4425 71.2727 61.7876C71.4608 62.14 71.7816 62.3382 72.0538 62.4191C72.3306 62.5044 72.569 62.484 72.7205 62.445C72.8735 62.4054 72.9452 62.3532 72.9394 62.3379Z" fill="#263238"/>
<path d="M84.0701 102.845L91.1295 81.1708L91.7687 77.5316C91.7687 77.5316 93.6894 69.4191 93.7749 68.6161C93.8736 67.6883 94.3445 67.5129 94.684 67.5725C95.2129 67.6653 95.52 68.3623 95.4598 69.1611C95.439 69.4373 94.9364 73.7795 94.9364 73.7795C94.9364 73.7795 95.1739 73.4413 95.9043 72.6971C96.6351 71.9529 98.1942 71.6506 99.7377 71.8672C101.281 72.0838 101.694 72.2808 101.638 72.8842C101.616 73.1266 101.459 73.3062 101.271 73.4363C100.965 73.6487 100.582 73.7252 100.212 73.6785C97.7354 73.3656 96.9245 74.6197 96.9245 74.6197L96.8408 75.0959C96.8408 75.0959 98.4653 74.1813 99.6171 74.7653C99.8049 74.8606 99.949 74.9806 100.064 75.1125C100.723 75.1901 101.331 75.6201 101.613 76.2207C101.907 76.846 101.836 77.6273 101.435 78.1895C101.243 78.4581 100.917 78.6921 100.602 78.5923C100.436 78.5398 100.312 78.405 100.192 78.2787C100.129 78.2122 100.062 78.1457 99.9888 78.0914L99.5678 79.3922C99.5678 79.3922 98.4659 82.2642 98.1279 83.5682L94.6906 105.394C94.2141 108.42 91.3487 110.467 88.3316 109.937C85.0496 109.361 83.0381 106.013 84.0701 102.845Z" fill="#B78876"/>
<path d="M91.8736 80.9482C92.3157 81.1218 92.8185 80.8387 93.1079 80.462C93.3973 80.0853 93.5503 79.6218 93.8117 79.2253C94.5934 78.0395 96.2213 77.6087 96.9455 76.3868C97.0465 76.2164 97.1175 75.9747 96.9724 75.8399C96.8378 75.7149 96.6228 75.7792 96.4537 75.8505C95.0083 76.4585 93.563 77.0669 92.1176 77.6749" fill="#B78876"/>
<path d="M92.1174 77.6749C92.1102 77.6577 92.2704 77.5712 92.5661 77.4295C92.8618 77.2876 93.2932 77.0905 93.8281 76.8521C94.3866 76.6078 95.0211 76.3305 95.7135 76.0277C95.8921 75.9509 96.0744 75.8726 96.2599 75.7929C96.4387 75.7317 96.645 75.5723 96.955 75.6739C97.1072 75.732 97.1974 75.9127 97.1866 76.0538C97.1829 76.1962 97.1362 76.3139 97.0782 76.4231C96.9571 76.6236 96.8234 76.8096 96.6617 76.9776C96.0159 77.6527 95.235 78.0365 94.6483 78.5169C94.3513 78.7522 94.0964 79.005 93.9104 79.2785C93.7239 79.5516 93.5939 79.8454 93.4456 80.1042C93.1718 80.64 92.7273 80.9677 92.3862 81.0228C92.038 81.0874 91.8631 80.9534 91.8736 80.9484C91.8792 80.9218 92.058 81.0104 92.3606 80.9215C92.6645 80.836 93.0349 80.5374 93.2789 80.014C93.4119 79.7594 93.5314 79.4582 93.7253 79.1553C93.9189 78.8525 94.1874 78.5755 94.4924 78.3249C95.0962 77.8165 95.8708 77.4211 96.4656 76.7943C96.6147 76.6407 96.739 76.4656 96.8442 76.2946C96.941 76.125 96.9503 75.9433 96.8492 75.9142C96.744 75.8654 96.5445 75.9491 96.3596 76.029C96.1728 76.106 95.9895 76.1815 95.8096 76.2553C95.1089 76.5387 94.4671 76.7982 93.902 77.0267C93.3575 77.2428 92.9149 77.4132 92.6067 77.5255C92.2983 77.6382 92.1248 77.692 92.1174 77.6749Z" fill="#AA6550"/>
<path d="M96.7814 75.1118C96.8149 75.1231 96.798 74.7324 97.1565 74.3061C97.333 74.0982 97.6163 73.9191 97.9711 73.8394C98.3254 73.7547 98.7338 73.7595 99.1633 73.7964C99.5935 73.8315 100.016 73.8708 100.402 73.8215C100.785 73.7716 101.125 73.6521 101.363 73.464C101.607 73.277 101.686 73.0106 101.677 72.8481C101.67 72.6813 101.627 72.5988 101.621 72.6009C101.604 72.6038 101.624 72.6922 101.61 72.8449C101.596 72.9958 101.513 73.2121 101.289 73.3664C101.07 73.5221 100.746 73.6247 100.384 73.6629C100.019 73.7012 99.6112 73.6598 99.1767 73.6239C98.7428 73.5867 98.3115 73.5846 97.9326 73.6846C97.5525 73.7782 97.2407 73.9909 97.0621 74.2283C96.8787 74.4639 96.8078 74.6997 96.7819 74.8596C96.7569 75.0215 96.7716 75.1118 96.7814 75.1118Z" fill="#AA6550"/>
<path d="M95.4745 68.8523C95.4497 68.8515 95.418 69.1818 95.3687 69.7149C95.3114 70.3082 95.2429 71.0152 95.1674 71.7969C95.0801 72.5775 95.0009 73.2834 94.9347 73.8759C94.8727 74.4077 94.8355 74.7375 94.8601 74.7417C94.8828 74.7457 94.9627 74.4228 95.0561 73.8936C95.15 73.3647 95.2545 72.63 95.3399 71.8148C95.4246 70.9999 95.4742 70.2594 95.4914 69.7226C95.509 69.1857 95.4977 68.8531 95.4745 68.8523Z" fill="#AA6550"/>
<path d="M97.6516 76.1967C97.6566 76.2088 97.7492 76.1759 97.9144 76.126C98.0726 76.0817 98.3409 76.0115 98.5855 76.1658C98.7042 76.24 98.7728 76.3798 98.7715 76.551C98.7754 76.7204 98.72 76.9042 98.6702 77.1084C98.6214 77.3076 98.5781 77.5627 98.7 77.7996C98.8218 78.028 99.0632 78.1802 99.3249 78.2145C99.5932 78.2502 99.8509 78.1465 100.037 77.9932C100.223 77.8368 100.359 77.6429 100.423 77.4234C100.531 77.005 100.537 76.628 100.525 76.3099C100.509 75.9925 100.453 75.7364 100.381 75.571C100.309 75.405 100.233 75.3349 100.227 75.3404C100.214 75.3496 100.269 75.4301 100.318 75.5934C100.367 75.7569 100.402 76.0049 100.403 76.3128C100.399 76.618 100.377 76.9952 100.27 77.3775C100.16 77.7286 99.7792 78.0958 99.3476 78.0425C99.1366 78.0159 98.9421 77.8903 98.8503 77.7199C98.758 77.5482 98.7815 77.3392 98.8261 77.1432C98.8691 76.9459 98.9258 76.7462 98.9152 76.5454C98.9147 76.3476 98.8087 76.1453 98.6509 76.0619C98.3351 75.8888 98.0465 76.0007 97.8922 76.0622C97.7286 76.1336 97.6474 76.1869 97.6516 76.1967Z" fill="#AA6550"/>
<path d="M99.9842 77.8536C99.9761 77.8512 99.9423 77.9409 99.9819 78.1016C100.021 78.2559 100.153 78.4873 100.438 78.602C100.717 78.7139 101.116 78.6638 101.421 78.4105C101.727 78.1604 101.921 77.751 101.969 77.3128C102.017 76.872 101.914 76.4438 101.722 76.113C101.532 75.7783 101.261 75.5493 101.014 75.4079C100.765 75.2654 100.538 75.2074 100.382 75.1847C100.225 75.1631 100.138 75.1726 100.137 75.1826C100.13 75.2156 100.492 75.2198 100.951 75.5124C101.175 75.6582 101.417 75.8806 101.583 76.1906C101.751 76.4977 101.841 76.8915 101.797 77.2941C101.753 77.6945 101.58 78.066 101.319 78.2881C101.061 78.5126 100.72 78.568 100.479 78.4865C100.235 78.405 100.099 78.2137 100.046 78.0805C99.9911 77.9428 99.9993 77.8539 99.9842 77.8536Z" fill="#AA6550"/>
<path d="M96.6796 80.4358C96.6825 80.4203 96.5295 80.372 96.2639 80.3968C96.003 80.4208 95.6218 80.5376 95.3005 80.8468L95.4419 80.9051C95.4427 80.721 95.4326 80.521 95.4081 80.3158C95.2767 79.1701 94.7394 78.3758 94.7077 78.4061C94.6594 78.428 95.1111 79.2334 95.2361 80.3361C95.2599 80.5347 95.272 80.7278 95.2759 80.9062L95.2804 81.1032L95.4176 80.9642C95.6988 80.6793 96.0389 80.5498 96.28 80.4997C96.5243 80.4482 96.6778 80.4588 96.6796 80.4358Z" fill="#AA6550"/>
<path d="M97.5556 73.0505C97.5126 73.0663 97.6467 73.3958 98.011 73.6005C98.3734 73.8084 98.7251 73.7543 98.7166 73.7092C98.7169 73.6588 98.4106 73.6324 98.0964 73.4499C97.7786 73.2737 97.5989 73.0244 97.5556 73.0505Z" fill="#AA6550"/>
<path d="M78.4803 73.048C78.4737 73.0556 78.5768 73.1533 78.7536 73.3561C78.9216 73.5608 79.1957 73.8671 79.3656 74.3385C79.407 74.4559 79.4294 74.5847 79.435 74.7189C79.4334 74.8532 79.4017 74.9904 79.3342 75.1183C79.1904 75.3729 78.9055 75.5612 78.5734 75.6834C77.9046 75.9332 77.0697 76.0068 76.1606 76.0242C75.7056 76.0329 75.2162 76.0501 74.7139 76.0796C74.4628 76.1089 74.2066 76.139 73.9457 76.1696C73.6843 76.1981 73.4242 76.268 73.1559 76.317C72.097 76.5568 70.9677 76.9644 69.9845 77.7258C69.493 78.1006 69.0395 78.5573 68.6747 79.0996C68.5863 79.2374 68.5008 79.378 68.4259 79.5275C68.3494 79.6819 68.2956 79.8338 68.2318 79.9852C68.1144 80.2936 68.0189 80.6176 67.9574 80.9494C67.6936 82.2745 67.8965 83.7394 68.5781 85.0036C69.2664 86.2733 70.4356 87.1939 71.6958 87.6656C72.3278 87.9041 72.9884 88.0278 73.6379 88.051C74.2905 88.0716 74.9231 87.9553 75.5148 87.8223C76.1087 87.6909 76.6809 87.5524 77.2414 87.5142C77.7997 87.4759 78.3452 87.5546 78.8084 87.7907C79.2741 88.0233 79.6537 88.3766 79.9821 88.7427C80.3108 89.112 80.5907 89.5001 80.8674 89.8684C81.4151 90.6033 81.9944 91.2518 82.6705 91.5918C83.0026 91.7599 83.3532 91.8593 83.6759 91.8546C83.998 91.8569 84.2892 91.7926 84.533 91.6947C84.7775 91.5966 84.9741 91.4625 85.1213 91.323C85.2666 91.1803 85.3587 91.0325 85.4162 90.907C85.5241 90.6511 85.5091 90.5018 85.5091 90.5018C85.4916 90.4981 85.4856 90.6458 85.3663 90.8827C85.3036 90.9988 85.2088 91.1338 85.0656 91.2631C84.9205 91.3892 84.7298 91.509 84.4945 91.5947C84.0304 91.7667 83.3672 91.8108 82.7418 91.4557C82.1076 91.1212 81.557 90.4899 81.0231 89.7523C80.7532 89.3835 80.4746 88.9862 80.1406 88.6024C79.8067 88.2217 79.4128 87.8445 78.9108 87.5873C78.4101 87.3253 77.8123 87.2359 77.2256 87.2728C76.636 87.3092 76.0514 87.448 75.4605 87.5746C74.8691 87.7036 74.2663 87.8104 73.645 87.7883C73.0253 87.7632 72.394 87.6432 71.7899 87.4132C70.5849 86.9578 69.4722 86.0773 68.8187 84.8711C68.1695 83.6677 67.9722 82.2648 68.2212 80.9993C68.279 80.6814 68.3684 80.3749 68.4805 80.0773C68.542 79.9298 68.5961 79.7771 68.6626 79.6434C68.7311 79.5056 68.8111 79.3727 68.8936 79.2426C69.2368 78.7285 69.6682 78.2879 70.1385 77.9255C71.0787 77.1879 72.1722 76.7821 73.206 76.5381C73.4683 76.488 73.722 76.4165 73.9785 76.3862C74.2346 76.3535 74.4858 76.3213 74.7321 76.2899C75.2292 76.2553 75.7019 76.2326 76.1643 76.2173C77.0847 76.1865 77.9308 76.1013 78.6291 75.8251C78.9741 75.6897 79.2878 75.48 79.4487 75.179C79.5241 75.0284 79.5561 74.8672 79.5529 74.7158C79.5431 74.5654 79.5133 74.4256 79.4653 74.3021C79.2682 73.808 78.9765 73.5144 78.7929 73.3176C78.6021 73.1256 78.4858 73.0411 78.4803 73.048Z" fill="#FAFAFA"/>
<path d="M58.4134 90.6373C58.4266 90.6405 58.4923 90.4331 58.5398 90.044C58.5907 89.6557 58.5846 89.078 58.43 88.39C58.2794 87.7012 57.9415 86.9158 57.4059 86.1519C56.8672 85.3916 56.1175 84.6622 55.1902 84.1087C54.2601 83.5666 53.2806 83.2313 52.3739 83.045C51.4659 82.8554 50.6317 82.7979 49.935 82.7942C49.2375 82.7905 48.6751 82.8322 48.2889 82.8773C47.9027 82.9224 47.6911 82.9638 47.6929 82.9812C47.6966 83.03 48.5527 82.9353 49.93 82.9883C50.6175 83.0166 51.4358 83.0936 52.3203 83.2925C53.2038 83.488 54.1514 83.8212 55.051 84.3453C55.9418 84.8774 56.6699 85.5741 57.2007 86.2999C57.728 87.0293 58.0726 87.7774 58.2417 88.4372C58.4145 89.0962 58.4509 89.6547 58.4332 90.0372C58.4189 90.4197 58.3894 90.6334 58.4134 90.6373Z" fill="#FAFAFA"/>
<path d="M43.9991 95.2233C43.9859 95.233 44.0883 95.4037 44.3091 95.687C44.5289 95.9712 44.881 96.3582 45.3714 96.7771C45.8608 97.1965 46.5005 97.6344 47.2735 98.0019C48.0446 98.3702 48.9536 98.6551 49.9358 98.7786C50.9192 98.8925 51.8702 98.8318 52.707 98.6577C53.5451 98.4847 54.2709 98.2116 54.846 97.9204C55.4221 97.6302 55.8561 97.3379 56.137 97.1145C56.4187 96.8916 56.5588 96.7504 56.5483 96.7378C56.5166 96.6937 55.9136 97.2197 54.7623 97.745C53.6259 98.2721 51.8819 98.7356 49.9685 98.5058C48.0559 98.2736 46.4723 97.4089 45.4941 96.6267C44.5012 95.8427 44.0403 95.1882 43.9991 95.2233Z" fill="#FAFAFA"/>
<path d="M57.2461 94.3797C57.2435 94.3913 57.3308 94.4158 57.4867 94.4781C57.6423 94.5396 57.8653 94.6577 58.0903 94.8801C58.3145 95.1033 58.5279 95.4338 58.6981 95.8543C58.8667 96.2751 59.0044 96.7795 59.1218 97.343C59.2423 97.9067 59.3362 98.5399 59.5512 99.2023C59.6612 99.5318 59.8037 99.8684 60.0076 100.185C60.2136 100.5 60.4714 100.794 60.7769 101.045C61.3839 101.554 62.1452 101.908 62.9564 102.147C63.7689 102.387 64.63 102.52 65.4934 102.689C67.219 103.007 68.7999 103.647 70.0034 104.567C70.6062 105.022 71.1103 105.543 71.5063 106.082C71.8943 106.629 72.1753 107.194 72.3639 107.732C72.7364 108.817 72.7375 109.772 72.6425 110.402C72.5473 111.038 72.4038 111.372 72.4309 111.381C72.4396 111.384 72.4779 111.303 72.543 111.144C72.5787 111.065 72.61 110.963 72.6451 110.843C72.6852 110.723 72.7169 110.581 72.7483 110.42C72.8781 109.781 72.9089 108.797 72.5486 107.671C72.3658 107.111 72.0864 106.522 71.6923 105.95C71.2894 105.384 70.775 104.841 70.1575 104.366C68.9266 103.406 67.2994 102.742 65.5467 102.419C64.6746 102.248 63.8227 102.119 63.0321 101.888C62.2449 101.66 61.5142 101.324 60.9386 100.849C60.6484 100.616 60.406 100.343 60.2105 100.053C60.0171 99.7605 59.8778 99.4442 59.7676 99.1292C59.5515 98.4956 59.4457 97.8677 59.312 97.301C59.1803 96.7323 59.0278 96.2237 58.8398 95.7942C58.6506 95.3655 58.4127 95.0255 58.1642 94.8026C57.9149 94.5799 57.6719 94.4723 57.5057 94.4261C57.3384 94.3789 57.2472 94.3731 57.2461 94.3797Z" fill="#FAFAFA"/>
<path d="M64.3159 93.279C64.3054 93.274 64.2075 93.4552 64.1788 93.8187C64.1487 94.1762 64.227 94.731 64.5998 95.2783C64.7871 95.5464 65.0448 95.8168 65.3944 95.9996C65.5653 96.0975 65.7618 96.16 65.9663 96.2075C66.1731 96.242 66.3907 96.2594 66.6108 96.2341C67.0505 96.1887 67.4961 96.0146 67.8773 95.7215C68.2548 95.4279 68.5695 95.0032 68.6943 94.4983C68.7734 94.1764 68.7798 93.8414 68.7069 93.5262C68.6381 93.2072 68.4627 92.9265 68.2862 92.6991C68.1076 92.4654 67.9171 92.2523 67.7071 92.0668C67.6029 91.9737 67.4927 91.8882 67.3716 91.8159C67.2507 91.7458 67.1204 91.6793 66.9579 91.6714L66.9226 91.9069C66.9677 91.9183 67.0104 91.9288 67.0532 91.9396L67.1186 91.7125C66.5873 91.5598 66.0671 91.6281 65.6648 91.7914C65.2548 91.9473 64.9541 92.1966 64.7473 92.4256C64.5407 92.6588 64.4302 92.8798 64.3719 93.0331C64.3188 93.1895 64.3054 93.2761 64.3159 93.279C64.3513 93.2953 64.4304 92.9387 64.8478 92.5208C65.0564 92.319 65.3485 92.1016 65.7326 91.9729C66.1098 91.8362 66.5833 91.7927 67.0484 91.9381L67.1138 91.7107C67.0716 91.6991 67.0289 91.6875 66.984 91.6751L66.9487 91.9106C67.1344 91.9283 67.352 92.0861 67.5378 92.256C67.7285 92.4295 67.9081 92.6358 68.0741 92.858C68.2434 93.083 68.384 93.3149 68.4418 93.5868C68.5028 93.857 68.4972 94.1498 68.4278 94.4318C68.3197 94.8692 68.0472 95.243 67.7116 95.5092C67.3732 95.7738 66.9743 95.9352 66.5831 95.9822C66.3871 96.0083 66.1947 95.9956 66.0109 95.9698C65.8299 95.931 65.6545 95.8814 65.4999 95.7975C65.1833 95.6432 64.9401 95.405 64.7575 95.1649C64.394 94.674 64.2885 94.1614 64.2856 93.8211C64.2806 93.4758 64.341 93.2856 64.3159 93.279Z" fill="#FAFAFA"/>
<path d="M81.3392 84.6624C81.3368 84.6626 81.336 84.6866 81.3368 84.7333C81.3387 84.7879 81.3408 84.856 81.3434 84.9404C81.3529 85.1327 81.3658 85.3989 81.3825 85.736C81.4236 86.4264 81.465 87.4265 81.5202 88.6619C81.6236 91.1329 81.7246 94.5484 81.8046 98.3213C81.8855 102.096 81.9349 105.513 81.9702 107.986C81.989 109.215 82.004 110.213 82.0148 110.915C82.0219 111.253 82.0277 111.519 82.032 111.712C82.0351 111.796 82.0375 111.864 82.0396 111.919C82.042 111.966 82.0446 111.99 82.047 111.989C82.0494 111.989 82.0517 111.965 82.0539 111.919C82.0554 111.864 82.0573 111.796 82.0597 111.712C82.0618 111.519 82.0647 111.253 82.0684 110.915C82.0681 110.213 82.0678 109.215 82.0676 107.986C82.057 105.512 82.023 102.094 81.942 98.3187C81.8621 94.545 81.7457 91.1287 81.6173 88.6577C81.5497 87.4223 81.4935 86.4227 81.436 85.7329C81.4086 85.3963 81.387 85.1309 81.3711 84.9388C81.3629 84.8547 81.3561 84.7869 81.3508 84.7325C81.3455 84.6861 81.3416 84.6624 81.3392 84.6624Z" fill="#263238"/>
<g opacity="0.2">
<path d="M86.3789 109.191C84.9074 109.895 82.9827 108.543 82.2309 107.095C82.2309 107.095 81.8381 103.905 81.8927 102.274C81.994 99.256 81.7734 96.2679 81.875 93.2498C82.1026 95.0452 82.8603 96.7702 84.0287 98.1523C84.3516 98.5343 84.7175 98.9134 84.838 99.399C85.0538 100.269 84.389 101.835 83.9619 102.623C82.6543 105.034 85.5181 109.208 86.2834 109.13" fill="black"/>
</g>
<g opacity="0.2">
<path d="M58.832 89.499C58.3501 95.514 57.8681 101.529 57.3861 107.544C57.3408 108.112 57.2925 108.692 57.069 109.216C56.8459 109.741 56.413 110.21 55.8545 110.323C54.9995 110.498 54.1706 109.762 53.9292 108.923C53.6879 108.085 53.8804 107.189 54.0904 106.342C54.4481 104.899 54.8539 103.469 55.2596 102.039C56.4367 97.8896 57.6141 93.7407 58.7911 89.5916" fill="black"/>
</g>
<path d="M75.365 120.309C75.3951 120.292 75.1144 120.007 74.9638 119.351C74.8145 118.7 74.9081 117.692 75.4125 116.601C75.6616 116.055 76.0121 115.489 76.3656 114.865C76.7154 114.242 77.0864 113.547 77.2589 112.734C77.4367 111.92 77.3351 111.026 77.0721 110.181C76.8138 109.33 76.4282 108.505 76.1171 107.64C75.4571 105.924 75.4909 104.095 75.9855 102.594C76.2287 101.841 76.5788 101.167 76.9856 100.593C77.3963 100.02 77.8588 99.5464 78.3194 99.1618C79.2506 98.3975 80.1597 97.9955 80.7965 97.7802C81.4373 97.5655 81.8113 97.5077 81.8066 97.4824C81.805 97.4732 81.7111 97.4816 81.5328 97.5064C81.355 97.5323 81.093 97.5821 80.7643 97.6784C80.1088 97.8652 79.1683 98.2469 78.1972 99.0109C77.7168 99.3955 77.2328 99.8746 76.8009 100.459C76.373 101.046 76.0032 101.739 75.7449 102.516C75.4882 103.292 75.3395 104.148 75.3487 105.04C75.3463 105.93 75.5341 106.854 75.8586 107.732C76.176 108.614 76.5609 109.435 76.8146 110.259C77.0732 111.081 77.1705 111.916 77.0109 112.683C76.8558 113.451 76.5057 114.131 76.1665 114.754C75.8243 115.379 75.4806 115.954 75.235 116.521C74.739 117.653 74.671 118.705 74.8596 119.375C74.9482 119.712 75.0888 119.947 75.1849 120.099C75.2954 120.244 75.3579 120.314 75.365 120.309Z" fill="#FAFAFA"/>
<path d="M50.602 76.9099C50.5889 76.9157 50.6524 77.1167 50.8579 77.4352C51.0608 77.7525 51.4309 78.1759 52.0034 78.5466C52.5705 78.9196 53.3543 79.2161 54.2523 79.2905C55.1498 79.3704 56.1443 79.2364 57.1257 78.9238C58.1073 78.613 59.0016 78.1239 59.6334 77.4681C59.9473 77.1426 60.2 76.783 60.3646 76.4119C60.5287 76.0415 60.6171 75.6714 60.6487 75.3303C60.7118 74.6441 60.5414 74.0896 60.3557 73.7604C60.3129 73.6752 60.2649 73.6055 60.2219 73.5462C60.1818 73.4852 60.1425 73.4377 60.1072 73.4021C60.0394 73.3288 60.0011 73.294 59.9937 73.3003C59.9734 73.3164 60.1109 73.4744 60.2594 73.8076C60.4082 74.1368 60.5387 74.6655 60.4554 75.3094C60.4137 75.6294 60.3195 75.9745 60.1578 76.3164C59.9964 76.6575 59.7539 76.9877 59.4529 77.2906C58.8491 77.8987 57.9936 78.3611 57.0423 78.6621C56.0894 78.9655 55.1318 79.1011 54.2723 79.038C53.4116 78.9797 52.6631 78.718 52.1057 78.3814C51.5451 78.0474 51.1682 77.662 50.9447 77.3726C50.7189 77.083 50.6229 76.8994 50.602 76.9099Z" fill="#FAFAFA"/>
<path d="M54.2131 105.288C54.2155 105.288 54.2247 105.263 54.2411 105.214C54.2587 105.156 54.2814 105.083 54.3097 104.992C54.3698 104.788 54.4537 104.502 54.5605 104.139C54.7753 103.386 55.0815 102.314 55.4585 100.993C56.2064 98.3243 57.235 94.6535 58.3714 90.5988C58.9347 88.5672 59.4707 86.6325 59.959 84.8714C60.2007 83.9903 60.412 83.1434 60.5209 82.3336C60.6317 81.525 60.6383 80.7555 60.5278 80.067C60.2993 78.6828 59.6195 77.7004 59.0357 77.1963C58.7426 76.9385 58.4748 76.7937 58.2949 76.6985C58.2068 76.6613 58.1364 76.6312 58.0813 76.608C58.0327 76.5884 58.0077 76.5797 58.0066 76.5819C57.9937 76.6022 58.4239 76.7219 58.9998 77.2361C59.5644 77.745 60.2191 78.7195 60.4317 80.0823C60.5341 80.7595 60.5225 81.5187 60.4077 82.318C60.2951 83.1186 60.0814 83.9591 59.8366 84.8379C59.3451 86.5982 58.8054 88.5319 58.2388 90.5621C57.1176 94.621 56.1025 98.2958 55.3646 100.967C55.005 102.293 54.7133 103.37 54.5086 104.125C54.4123 104.491 54.3366 104.779 54.2825 104.985C54.2595 105.078 54.2413 105.152 54.2271 105.21C54.2157 105.261 54.2107 105.287 54.2131 105.288Z" fill="#263238"/>
<path d="M64.9553 46.8685C64.9732 46.8667 64.907 46.6651 64.9529 46.304C64.998 45.9489 65.1988 45.4292 65.6823 44.9937C66.1519 44.546 66.9251 44.2788 67.7827 44.3001C68.6459 44.3072 69.5634 44.5908 70.5118 44.9103C70.9885 45.0673 71.458 45.2171 71.9244 45.3202C72.3911 45.421 72.8507 45.4754 73.2888 45.4862C74.167 45.5126 74.9532 45.3696 75.5871 45.1839C76.221 44.991 76.7051 44.7557 77.0256 44.5739C77.1873 44.4845 77.3071 44.4059 77.387 44.3508C77.4675 44.2964 77.5084 44.2661 77.5057 44.2619C77.4981 44.2497 77.3277 44.3616 77.0003 44.5267C76.6742 44.6927 76.1894 44.9119 75.5602 45.0905C74.931 45.2619 74.1557 45.3925 73.2928 45.3596C72.862 45.3456 72.4117 45.2896 71.954 45.1889C71.496 45.0857 71.0312 44.9367 70.555 44.78C69.6082 44.461 68.6715 44.174 67.7846 44.1735C66.9043 44.1574 66.0965 44.4465 65.6166 44.9224C65.1233 45.3841 64.9299 45.9299 64.9001 46.2979C64.8695 46.6725 64.9553 46.8685 64.9553 46.8685Z" fill="#455A64"/>
<path d="M61.3274 54.7531C61.3316 54.7552 61.3527 54.7214 61.3889 54.6549C61.4263 54.589 61.4752 54.4887 61.534 54.3576C61.6508 54.0951 61.7965 53.7026 61.9057 53.1979C62.0117 52.6941 62.0787 52.0768 62.026 51.3943C61.983 50.7087 61.7698 49.9851 61.6097 49.2269C61.4438 48.4714 61.4052 47.7187 61.6055 47.0827C61.7015 46.7664 61.8579 46.4884 62.0524 46.2702C62.2481 46.0568 62.4876 45.9109 62.7227 45.8307C63.1975 45.6634 63.6259 45.7389 63.8742 45.86C64.1248 45.9879 64.2208 46.123 64.2324 46.1111C64.2324 46.1111 64.1535 45.9621 63.8987 45.8125C63.6465 45.6706 63.1965 45.5743 62.6916 45.7386C62.4415 45.8175 62.1829 45.9665 61.9682 46.1937C61.7582 46.4213 61.5888 46.7144 61.4846 47.045C61.2681 47.7079 61.3071 48.4909 61.4751 49.2551C61.6376 50.0231 61.8513 50.7353 61.8999 51.4049C61.9584 52.0731 61.903 52.6801 61.8104 53.1789C61.7149 53.6783 61.5852 54.0709 61.4846 54.3376C61.3839 54.6043 61.3163 54.7478 61.3274 54.7531Z" fill="#455A64"/>
<path d="M64.5075 46.4917C64.5122 46.4912 64.5112 46.4268 64.5056 46.3044C64.5006 46.1683 64.494 45.9908 64.4856 45.7694C64.4808 45.3086 64.4661 44.624 64.7011 43.8318C64.8214 43.44 65.0182 43.0259 65.3245 42.655C65.6273 42.2848 66.0531 41.9614 66.5752 41.8285C67.0946 41.6868 67.6789 41.7367 68.2448 41.8968C68.8146 42.0574 69.3633 42.3416 69.9144 42.6536C70.466 42.9649 71.0058 43.282 71.5698 43.5055C72.1362 43.7231 72.7192 43.8371 73.2761 43.8481C73.8327 43.8605 74.3624 43.7891 74.8386 43.6564C75.3145 43.5213 75.7387 43.3372 76.1061 43.134C76.8364 42.7146 77.3204 42.2197 77.6069 41.8527C77.7549 41.671 77.8499 41.5161 77.9114 41.4093C77.9747 41.3038 78.0058 41.2476 78.0016 41.2452C77.9974 41.2428 77.9583 41.2945 77.8881 41.3945C77.8198 41.4961 77.7182 41.6446 77.5655 41.8192C77.2693 42.1717 76.7823 42.6478 76.0589 43.0491C75.6949 43.2432 75.2765 43.4184 74.8088 43.5464C74.3408 43.6719 73.8224 43.7373 73.2792 43.7218C72.7355 43.7075 72.1707 43.5941 71.6194 43.3807C71.0685 43.1609 70.5351 42.8467 69.9814 42.5341C69.4293 42.2215 68.8679 41.9313 68.2812 41.7675C67.699 41.6045 67.0896 41.5536 66.5422 41.7063C65.9914 41.8504 65.5458 42.1959 65.2361 42.5829C64.9222 42.9715 64.7254 43.4002 64.608 43.8041C64.3798 44.6187 64.4115 45.3091 64.4323 45.7715C64.446 46.0045 64.4642 46.1847 64.4782 46.3065C64.4925 46.4284 64.5027 46.492 64.5075 46.4917Z" fill="#455A64"/>
<path d="M71.4757 112.454L51.7477 109.512L52.0663 107.757H41.4482L41.1372 110.456C40.1754 115.457 43.9779 120.109 49.0706 120.16L72.0801 119.905L71.4757 112.454Z" fill="#B78876"/>
<path d="M70.0518 112.794C70.1573 112.829 71.4863 112.233 72.6766 111.682C73.9405 111.098 75.3268 110.828 76.7175 110.899L82.2026 111.178C82.2026 111.178 81.8638 112.083 81.2821 112.405C80.7005 112.726 77.2905 112.795 77.2905 112.795L77.4652 112.975C78.184 113.715 79.1641 114.144 80.1953 114.17L80.7192 114.183C81.108 114.152 81.4921 114.077 81.8641 113.959L83.2169 113.412C83.6263 113.228 84.0587 113.258 84.2367 113.67C84.3979 114.043 84.2797 114.557 83.1628 115.119C82.5384 115.434 80.2235 116.234 80.2235 116.234C80.2235 116.234 80.1897 116.874 80.0887 117.211C79.9877 117.548 79.0781 117.885 79.0781 117.885C79.0781 117.885 78.5053 119.064 78.2695 119.333C78.1637 119.454 77.3401 119.71 76.4638 119.956C75.0487 120.354 73.5501 120.344 72.1419 119.924L70.0515 119.3V112.933" fill="#B78876"/>
<path d="M77.5561 116.953C77.5588 116.989 78.2093 116.955 78.9822 116.75C79.7565 116.548 80.339 116.257 80.3239 116.225C80.3081 116.188 79.7098 116.418 78.9471 116.617C78.1861 116.819 77.5516 116.913 77.5561 116.953Z" fill="#AA6550"/>
<path d="M77.7489 118.238C77.7486 118.274 78.1029 118.296 78.5202 118.182C78.9383 118.07 79.2325 117.871 79.214 117.84C79.1953 117.805 78.8845 117.942 78.4843 118.049C78.0847 118.159 77.747 118.198 77.7489 118.238Z" fill="#AA6550"/>
<path d="M46.537 114.113C46.562 114.122 46.6929 113.732 47.0094 113.154C47.1653 112.864 47.3793 112.534 47.641 112.188C47.909 111.846 48.2285 111.489 48.5996 111.152C48.975 110.819 49.3639 110.54 49.7327 110.31C50.1057 110.087 50.456 109.909 50.761 109.786C51.3696 109.533 51.7721 109.445 51.7655 109.419C51.7634 109.41 51.6624 109.427 51.4801 109.466C51.3886 109.485 51.2775 109.511 51.1517 109.552C51.0256 109.592 50.8789 109.631 50.7251 109.695C50.4112 109.809 50.0506 109.98 49.6675 110.201C49.2887 110.429 48.8901 110.711 48.5078 111.05C48.1295 111.393 47.8069 111.759 47.5399 112.111C47.2793 112.468 47.0704 112.809 46.9234 113.108C46.8427 113.254 46.7884 113.396 46.7351 113.517C46.6805 113.638 46.6425 113.745 46.6145 113.834C46.5559 114.011 46.528 114.11 46.537 114.113Z" fill="#AA6550"/>
<path d="M76.7459 112.3C76.7337 112.313 76.8907 112.49 77.1695 112.753C77.4494 113.013 77.8549 113.36 78.3646 113.658C78.8748 113.955 79.3889 114.122 79.7651 114.198C80.1426 114.275 80.3808 114.28 80.3827 114.265C80.3956 114.215 79.4319 114.126 78.4334 113.539C77.9367 113.249 77.5278 112.919 77.2337 112.68C76.9403 112.438 76.7599 112.286 76.7459 112.3Z" fill="#AA6550"/>
<path d="M90.7031 54.4516C90.7031 54.9051 90.3356 55.2725 89.8822 55.2725C89.4287 55.2725 89.0612 54.9051 89.0612 54.4516C89.0612 53.9981 89.4287 53.6306 89.8822 53.6306C90.3356 53.6304 90.7031 53.9981 90.7031 54.4516Z" fill="#455A64"/>
<path d="M93.1693 55.2728C92.7159 55.2728 92.3483 54.9052 92.3483 54.4518C92.3483 53.9984 92.7159 53.6309 93.1693 53.6309C93.6227 53.6309 93.9902 53.9984 93.9902 54.4518C93.9902 54.9052 93.6227 55.2728 93.1693 55.2728Z" fill="#455A64"/>
<path d="M97.2688 54.0408C97.4955 54.4336 97.3609 54.9356 96.9684 55.1625C96.5756 55.3891 96.0735 55.2546 95.8467 54.862C95.6201 54.4692 95.7543 53.9672 96.1472 53.7406C96.5402 53.5137 97.0422 53.6483 97.2688 54.0408Z" fill="#455A64"/>
<path d="M93.2232 44.8621C93.2232 44.8584 93.2794 44.8574 93.3891 44.8595C93.5097 44.8629 93.6711 44.8674 93.8769 44.8732C93.984 44.8782 94.1045 44.8782 94.2364 44.8893C94.3686 44.9078 94.5119 44.9281 94.6667 44.9497C94.8229 44.9721 94.9904 44.9961 95.169 45.022C95.3452 45.0655 95.5322 45.1119 95.7301 45.161C96.5183 45.3639 97.4733 45.71 98.4497 46.3468C99.4255 46.9731 100.44 47.8689 101.262 49.0861C102.07 50.3049 102.693 51.8384 102.858 53.5605C102.874 53.9916 102.926 54.43 102.885 54.8756C102.869 55.098 102.874 55.324 102.841 55.5483C102.807 55.7725 102.773 55.9983 102.739 56.2257C102.555 57.1242 102.288 58.0446 101.825 58.902C101.373 59.7612 100.789 60.579 100.077 61.3071C99.3508 62.0204 98.5027 62.6393 97.5588 63.1163C96.6175 63.5972 95.5747 63.9291 94.4892 64.0586C94.2203 64.1119 93.9449 64.1116 93.6703 64.1282C93.3957 64.1462 93.1198 64.1562 92.8428 64.1433C92.289 64.1208 91.7337 64.0512 91.185 63.9338C89.9929 63.68 88.8704 63.1946 87.8848 62.5449L87.9851 62.5549C86.8412 63.0139 85.7188 63.4645 84.6234 63.904L84.4243 63.9839L84.481 63.7774C84.8202 62.5438 85.15 61.344 85.4692 60.1836L85.4861 60.2722C84.5427 59.0183 83.9412 57.5869 83.6922 56.1656C83.5672 55.4554 83.5144 54.7466 83.5616 54.0615C83.5761 53.7183 83.5928 53.3798 83.6571 53.0508C83.6827 52.8857 83.708 52.7219 83.7334 52.5591C83.7634 52.3974 83.8125 52.2407 83.8508 52.0832C84.5002 49.5533 86.0583 47.6848 87.6015 46.6156C88.3739 46.0717 89.1358 45.6815 89.8336 45.438C90.0074 45.3757 90.1749 45.3159 90.3364 45.2581C90.502 45.2159 90.6611 45.1755 90.8136 45.1367C90.9658 45.099 91.1114 45.0629 91.2502 45.0286C91.3903 45.0017 91.5253 44.9872 91.652 44.9679C91.9063 44.9357 92.1294 44.8919 92.3252 44.8822C92.5178 44.8756 92.6821 44.87 92.8193 44.8655C92.9443 44.8629 93.0438 44.8605 93.1211 44.8589C93.1886 44.8579 93.2232 44.8592 93.2232 44.8621C93.2232 44.865 93.1889 44.8698 93.1211 44.8761C93.0443 44.8822 92.9454 44.8901 92.8206 44.8998C92.6845 44.9091 92.5212 44.9199 92.3299 44.9331C92.1358 44.9481 91.9147 44.9972 91.663 45.0344C90.6738 45.2159 89.1904 45.6103 87.6751 46.7182C86.1619 47.788 84.6435 49.6388 84.0188 52.1257C83.9821 52.2805 83.9344 52.4346 83.9056 52.5934C83.8816 52.7533 83.8576 52.9145 83.8331 53.0764C83.7714 53.3993 83.7568 53.7317 83.7442 54.0686C83.7004 54.7408 83.7555 55.4356 83.8803 56.1313C84.1296 57.5234 84.7229 58.9231 85.6496 60.1487L85.68 60.1888L85.6668 60.2376C85.35 61.3989 85.0226 62.5992 84.686 63.8336L84.5438 63.7069C85.6388 63.2661 86.7605 62.8142 87.9038 62.3539L87.9566 62.3328L88.0043 62.3642C88.9688 62.9986 90.066 63.4727 91.2309 63.7206C91.7672 63.8354 92.3102 63.9035 92.8515 63.9256C93.1224 63.9385 93.392 63.9285 93.6608 63.9111C93.9294 63.895 94.1985 63.8958 94.4612 63.8436C95.5227 63.7183 96.5424 63.3946 97.4633 62.9255C98.3869 62.4605 99.2178 61.8566 99.9301 61.1602C100.629 60.4487 101.201 59.6499 101.647 58.8099C102.103 57.9718 102.367 57.0712 102.551 56.1914C102.585 55.9685 102.619 55.7474 102.653 55.5277C102.686 55.3079 102.682 55.0861 102.698 54.8682C102.741 54.4311 102.692 54.0008 102.678 53.5777C102.524 51.8869 101.921 50.3775 101.134 49.1724C100.333 47.9692 99.3408 47.0778 98.3837 46.4497C97.4261 45.8113 96.4862 45.457 95.7082 45.2436C95.513 45.1916 95.3281 45.1423 95.1542 45.0958C94.9775 45.0668 94.8118 45.0397 94.6575 45.0143C94.5042 44.989 94.362 44.9655 94.2312 44.9442C94.1003 44.9296 93.9808 44.9262 93.8742 44.9178C93.6693 44.9027 93.5086 44.8911 93.3888 44.8824C93.2794 44.8724 93.2232 44.8658 93.2232 44.8621Z" fill="#455A64"/>
</g>
<defs>
<clipPath id="clip0_569_3408">
<rect width="131.902" height="131.902" fill="white" transform="translate(0.0976562 0.654541)"/>
</clipPath>
</defs>
</svg>
