<svg width="1421" height="239" viewBox="0 0 1421 239" fill="none" xmlns="http://www.w3.org/2000/svg">
<path d="M4.13928 234H613.877C625.917 234 636.938 227.242 642.398 216.511L740.602 23.4894C746.062 12.7583 757.083 6 769.123 6H1412.67" stroke="#9CA3AF"/>
<path d="M6.3818 228L1 232.714L6.3818 237.5L11.4646 233L6.3818 228Z" fill="#9CA3AF" stroke="#9CA3AF"/>
<path d="M1414.92 1L1409.54 6L1414.92 10.5L1420 6L1414.92 1Z" fill="#9CA3AF" stroke="#9CA3AF"/>
</svg>
